<svg class="ldi-j7svyb" width="200px"  height="200px"  xmlns="http://www.w3.org/2000/svg" xmlns:xlink="http://www.w3.org/1999/xlink" viewBox="0 0 100 100" preserveAspectRatio="xMidYMid" style="background: none;"><!--?xml version="1.0" encoding="utf-8"?--><!--Generator: Adobe Illustrator 21.0.0, SVG Export Plug-In . SVG Version: 6.00 Build 0)--><svg version="1.1" id="圖層_1" xmlns="http://www.w3.org/2000/svg" xmlns:xlink="http://www.w3.org/1999/xlink" x="0px" y="0px" viewBox="0 0 100 100" style="transform-origin: 50px 50px 0px;" xml:space="preserve"><g style="transform-origin: 50px 50px 0px;"><g style="transform-origin: 50px 50px 0px; transform: scale(0.6);"><g class="ld ld-jump-px" style="transform-origin: 50px 50px 0px; animation-duration: 1.4s; animation-delay: -1.4s; animation-direction: normal;"><g><style type="text/css" style="transform-origin: 50px 50px 0px;">.st0,.st1{stroke:#333}.st0{stroke-miterlimit:10;fill:#fff;stroke-width:8}.st1{fill:none;stroke-width:3.5;stroke-linecap:round;stroke-linejoin:round}.st1,.st2,.st3,.st4{stroke-miterlimit:10}.st2{fill:none;stroke-width:3.5;stroke-linecap:round;stroke-linejoin:round;stroke:#f8b26a}.st3,.st4{stroke:#333}.st3{stroke-linejoin:round;fill:#c33737;stroke-width:3.5}.st4{fill:#fff;stroke-width:6}.st5{fill:#4a3827}.st6{fill:#a0c8d7}.st7{fill:#f5e6c8}.st10,.st8,.st9{fill:#fff;stroke:#333;stroke-width:4;stroke-miterlimit:10}.st10,.st9{fill:none;stroke:#849b87;stroke-linecap:round}.st10{stroke:#e15b64}.st11{fill:#666}.st12{fill:#e15b64}.st13{fill:#f8b26a}.st14{fill:#849b87}.st15{fill:#c33737}.st16{fill:#f47e60}.st17{fill:#fff}.st18{fill:#333}.st19{fill:#abbd81}.st20{opacity:.2}.st21,.st22,.st23,.st24,.st25{stroke-width:3.5;stroke-miterlimit:10}.st21{stroke-linecap:round;fill:none;stroke:#f8b26a}.st22,.st23,.st24,.st25{fill:#e15b64;stroke:#333;stroke-linejoin:round}.st23,.st24,.st25{fill:#f47e60}.st24,.st25{stroke-linecap:round}.st25{fill:#e15b64}.st26{fill:#f8b26a;stroke:#333}.st26,.st27,.st28{stroke-width:3.5;stroke-linecap:round;stroke-linejoin:round;stroke-miterlimit:10}.st27{opacity:.2;stroke:#000}.st28{fill:none;stroke:#fff}.st29{fill:#fefefe}.st30{fill:#666;stroke:#333;stroke-width:3.5;stroke-linejoin:round;stroke-miterlimit:10}</style><g style="transform-origin: 50px 50px 0px;"><path class="st1" d="M38.693,31.971V18.763c0-5.462,3.379-8.763,7.547-8.763h0c4.168,0,7.547,3.301,7.547,8.763v13.208" stroke="#ffffff" style="stroke: rgb(255, 255, 255);"></path></g><g style="transform-origin: 50px 50px 0px;"><polygon class="st24" points="70.954,22.396 29.046,22.396 22.138,83.227 35.565,90 77.862,83.227 " stroke="#ffffff" fill="#2AC37D" style="stroke: rgb(255, 255, 255); fill: rgb(42, 195, 125);"></polygon></g><g style="transform-origin: 50px 50px 0px;"><polygon class="st25" points="29.046,22.396 22.138,83.227 35.565,90 35.565,22.396 " stroke="#ffffff" fill="#2AC37D" style="stroke: rgb(255, 255, 255); fill: rgb(42, 195, 125);"></polygon></g><g style="transform-origin: 50px 50px 0px;"><path class="st1" d="M45.453,31.971V18.763c0-5.462,3.379-8.763,7.547-8.763h0c4.168,0,7.547,3.301,7.547,8.763v13.208" stroke="#ffffff" style="stroke: rgb(255, 255, 255);"></path></g><metadata xmlns:d="https://loading.io/stock/" style="transform-origin: 50px 50px 0px;">
<d:name style="transform-origin: 50px 50px 0px;">shopping</d:name>
<d:tags style="transform-origin: 50px 50px 0px;">shopping,bag,buy,purchase,cart,payment,spend,department store,mall</d:tags>
<d:license style="transform-origin: 50px 50px 0px;">cc-by</d:license>
<d:slug style="transform-origin: 50px 50px 0px;">j7svyb</d:slug>
</metadata></g></g></g></g><style type="text/css" style="transform-origin: 50px 50px 0px;">@keyframes ld-jump-px {
  0%, 28%, 48%, 64%, 76%, 86%, 93%, 100% {
    animation-timing-function: ease-out;
  }
  14%, 38%, 56%, 70%, 81%, 90%, 97% {
    animation-timing-function: ease-in;
  }
  0% {
    -webkit-transform: translateY(0px);
    transform: translateY(0px);
  }
  14% {
    -webkit-transform: translateY(-27px);
    transform: translateY(-27px);
  }
  28% {
    -webkit-transform: translateY(0px);
    transform: translateY(0px);
  }
  38% {
    -webkit-transform: translateY(-20px);
    transform: translateY(-20px);
  }
  48% {
    -webkit-transform: translateY(0px);
    transform: translateY(0px);
  }
  56% {
    -webkit-transform: translateY(-16px);
    transform: translateY(-16px);
  }
  64% {
    -webkit-transform: translateY(0px);
    transform: translateY(0px);
  }
  70% {
    -webkit-transform: translateY(-12px);
    transform: translateY(-12px);
  }
  76% {
    -webkit-transform: translateY(0px);
    transform: translateY(0px);
  }
  81% {
    -webkit-transform: translateY(-7.5px);
    transform: translateY(-7.5px);
  }
  86% {
    -webkit-transform: translateY(0px);
    transform: translateY(0px);
  }
  90% {
    -webkit-transform: translateY(-3px);
    transform: translateY(-3px);
  }
  93% {
    -webkit-transform: translateY(0px);
    transform: translateY(0px);
  }
  97% {
    -webkit-transform: translateY(-1.5px);
    transform: translateY(-1.5px);
  }
  100% {
    -webkit-transform: translateY(0px);
    transform: translateY(0px);
  }
}
@-webkit-keyframes ld-jump-px {
  0%, 28%, 48%, 64%, 76%, 86%, 93%, 100% {
    animation-timing-function: ease-out;
  }
  14%, 38%, 56%, 70%, 81%, 90%, 97% {
    animation-timing-function: ease-in;
  }
  0% {
    -webkit-transform: translateY(0px);
    transform: translateY(0px);
  }
  14% {
    -webkit-transform: translateY(-27px);
    transform: translateY(-27px);
  }
  28% {
    -webkit-transform: translateY(0px);
    transform: translateY(0px);
  }
  38% {
    -webkit-transform: translateY(-20px);
    transform: translateY(-20px);
  }
  48% {
    -webkit-transform: translateY(0px);
    transform: translateY(0px);
  }
  56% {
    -webkit-transform: translateY(-16px);
    transform: translateY(-16px);
  }
  64% {
    -webkit-transform: translateY(0px);
    transform: translateY(0px);
  }
  70% {
    -webkit-transform: translateY(-12px);
    transform: translateY(-12px);
  }
  76% {
    -webkit-transform: translateY(0px);
    transform: translateY(0px);
  }
  81% {
    -webkit-transform: translateY(-7.5px);
    transform: translateY(-7.5px);
  }
  86% {
    -webkit-transform: translateY(0px);
    transform: translateY(0px);
  }
  90% {
    -webkit-transform: translateY(-3px);
    transform: translateY(-3px);
  }
  93% {
    -webkit-transform: translateY(0px);
    transform: translateY(0px);
  }
  97% {
    -webkit-transform: translateY(-1.5px);
    transform: translateY(-1.5px);
  }
  100% {
    -webkit-transform: translateY(0px);
    transform: translateY(0px);
  }
}
.ld.ld-jump-px {
  -webkit-animation: ld-jump-px 1.5s ease-in infinite;
  animation: ld-jump-px 1.5s ease-in infinite;
}
</style></svg></svg>